{
	"name": "Node.js",
	"build": {
		"dockerfile": "Dockerfile",
	},
	"settings": {
		"terminal.integrated.shell.linux": "/bin/bash"
	},
	"extensions": [
		"dbaeumer.vscode-eslint",
		"eg2.vscode-npm-script",
		"christian-kohler.npm-intellisense"
	],
	"forwardPorts": [
		3000,
		3001
	],
	"postCreateCommand": "yarn install",
	"remoteUser": "node"
}